["adipocere",
"advanced decomposition",
"amputation",
"ant",
"ants",
"arm",
"autopsy bag",
"autopsy cut",
"axilla",
"background",
"bandage",
"bee",
"beetle",
"beginning bloat",
"black brown discoloration",
"black discoloration",
"black gray discoloration",
"black plastic",
"black tarp",
"bloat",
"body",
"bone",
"bone exposure",
"brown discoloration",
"bruising",
"bulla",
"bullae",
"clothing",
"darkened skin",
"dentures",
"dermis",
"desiccated skin",
"desiccation",
"discoloration",
"dry skin",
"duct tape",
"duplicate",
"ear",
"eggs",
"exposed bone",
"eye",
"face",
"flies",
"fly",
"foam",
"foot",
"fresh skin",
"genitals",
"glossy skin",
"gray discoloration",
"green gut",
"groin",
"hair",
"hand",
"head",
"hernia",
"insect",
"larvae",
"larval mass",
"left foot",
"left hand",
"leg",
"legs",
"lividity",
"livor mortis",
"maggot eggs",
"maggot foam",
"maggot",
"maggots",
"maggot mass",
"marbling",
"medical device",
"mesh bag",
"moist decomposition",
"moist skin",
"mold",
"mottling",
"mouth",
"mummification",
"mummified",
"neck",
"nose",
"open sore",
"organ bag",
"personal effects",
"post bloat",
"prone",
"prosthetic device",
"purge",
"raccoon print",
"recessed eye",
"recognizable face",
"right foot",
"right hand",
"sampling site",
"saturated soil",
"scale",
"scar",
"scatter",
"scavenging",
"skeletonization",
"skin slippage",
"skull",
"soft tissue",
"soil stain",
"stomata",
"supine",
"surgical implant",
"surgical item",
"tag",
"tattoo",
"torso",
"trauma",
"trunk",
"waterlogged skin",
"whole body",
"worm",
"zip tie"]
